
./octez-client --protocol PtParisBQscdCm6Cfow6ndeU6wKJyA3aV1j4D3gQBQMsTQyJCrz --mode mockup --no-base-dir-warnings run script michelson_test_scripts/opcodes/add_delta_timestamp.tz on storage None and input '(Pair 100 100)' --level 1 --trace-stack
storage
  (Some "1970-01-01T00:03:20Z")
emitted operations
  
big_map diff
  
trace
  - location: 10 (just consumed gas: 8.093)
    [ (Pair (Pair 100 "1970-01-01T00:01:40Z") None) ]
  - location: 10 (just consumed gas: 0.010)
    [ (Pair 100 "1970-01-01T00:01:40Z") ]
  - location: 11 (just consumed gas: 0.010)
    [ (Pair 100 "1970-01-01T00:01:40Z")
      (Pair 100 "1970-01-01T00:01:40Z") ]
  - location: 12 (just consumed gas: 0.010)
    [ 100
      (Pair 100 "1970-01-01T00:01:40Z") ]
  - location: 13 (just consumed gas: 0.010)
    [ (Pair 100 "1970-01-01T00:01:40Z") ]
  - location: 15 (just consumed gas: 0.010)
    [ "1970-01-01T00:01:40Z" ]
  - location: 13 (just consumed gas: 0.035)
    [ 100
      "1970-01-01T00:01:40Z" ]
  - location: 16 (just consumed gas: 0.035)
    [ "1970-01-01T00:03:20Z" ]
  - location: 17 (just consumed gas: 0.010)
    [ (Some "1970-01-01T00:03:20Z") ]
  - location: 18 (just consumed gas: 0.010)
    [ {}
      (Some "1970-01-01T00:03:20Z") ]
  - location: 20 (just consumed gas: 0.010)
    [ (Pair {} (Some "1970-01-01T00:03:20Z")) ]

