
./octez-client --protocol PtParisBQscdCm6Cfow6ndeU6wKJyA3aV1j4D3gQBQMsTQyJCrz --mode mockup --no-base-dir-warnings run script michelson_test_scripts/opcodes/not.tz on storage None and input True --level 1 --trace-stack
storage
  (Some False)
emitted operations
  
big_map diff
  
trace
  - location: 8 (just consumed gas: 4.907)
    [ (Pair True None) ]
  - location: 8 (just consumed gas: 0.010)
    [ True ]
  - location: 9 (just consumed gas: 0.010)
    [ False ]
  - location: 10 (just consumed gas: 0.010)
    [ (Some False) ]
  - location: 11 (just consumed gas: 0.010)
    [ {}
      (Some False) ]
  - location: 13 (just consumed gas: 0.010)
    [ (Pair {} (Some False)) ]

