
./octez-client --protocol PtParisBQscdCm6Cfow6ndeU6wKJyA3aV1j4D3gQBQMsTQyJCrz --mode mockup --no-base-dir-warnings run script michelson_test_scripts/opcodes/slice_bytes.tz on storage 'Some 0xaabbcc' and input 'Pair 0 1' --level 1 --trace-stack
storage
  (Some 0xaa)
emitted operations
  
big_map diff
  
trace
  - location: 10 (just consumed gas: 9.121)
    [ (Pair (Pair 0 1) (Some 0xaabbcc)) ]
  - location: 10 (just consumed gas: 0.010)
    [ (Pair 0 1)
      (Some 0xaabbcc) ]
  - location: 11 (just consumed gas: 0.010)
    [ (Some 0xaabbcc)
      (Pair 0 1) ]
  - location: 13 (just consumed gas: 0.010)
    [ 0xaabbcc
      (Pair 0 1) ]
  - location: 19 (just consumed gas: 0.010)
    [ (Pair 0 1)
      0xaabbcc ]
  - location: 20 (just consumed gas: 0.010)
    [ 0
      1
      0xaabbcc ]
  - location: 21 (just consumed gas: 0.026)
    [ (Some 0xaa) ]
  - location: 13 (just consumed gas: 0.025)
    [ (Some 0xaa) ]
  - location: 22 (just consumed gas: 0.010)
    [ {}
      (Some 0xaa) ]
  - location: 24 (just consumed gas: 0.010)
    [ (Pair {} (Some 0xaa)) ]

