
./octez-client --protocol PtParisBQscdCm6Cfow6ndeU6wKJyA3aV1j4D3gQBQMsTQyJCrz --mode mockup --no-base-dir-warnings run script michelson_test_scripts/opcodes/map_iter.tz on storage '(Pair 0 0)' and input '{ Elt 0 100 ; Elt 2 100 }' --level 1 --trace-stack
storage
  (Pair 2 200)
emitted operations
  
big_map diff
  
trace
  - location: 11 (just consumed gas: 18.332)
    [ (Pair { Elt 0 100 ; Elt 2 100 } 0 0) ]
  - location: 11 (just consumed gas: 0.010)
    [ { Elt 0 100 ; Elt 2 100 } ]
  - location: 12 (just consumed gas: 0.010)
    [ 0
      { Elt 0 100 ; Elt 2 100 } ]
  - location: 15 (just consumed gas: 0.010)
    [ 0
      0
      { Elt 0 100 ; Elt 2 100 } ]
  - location: 18 (just consumed gas: 0.010)
    [ (Pair 0 0)
      { Elt 0 100 ; Elt 2 100 } ]
  - location: 19 (just consumed gas: 0.010)
    [ { Elt 0 100 ; Elt 2 100 }
      (Pair 0 0) ]
  - location: 20 (just consumed gas: 0.075)
    [ (Pair 0 100)
      (Pair 0 0) ]
  - location: 22 (just consumed gas: 0.010)
    [ (Pair 0 0) ]
  - location: 24 (just consumed gas: 0.010)
    [ (Pair 0 0)
      (Pair 0 0) ]
  - location: 25 (just consumed gas: 0.010)
    [ 0
      (Pair 0 0) ]
  - location: 26 (just consumed gas: 0.010)
    [ (Pair 0 0) ]
  - location: 28 (just consumed gas: 0.010)
    [ 0 ]
  - location: 26 (just consumed gas: 0.035)
    [ 0
      0 ]
  - location: 22 (just consumed gas: 0.035)
    [ (Pair 0 100)
      0
      0 ]
  - location: 29 (just consumed gas: 0.010)
    [ (Pair 0 100)
      (Pair 0 100)
      0
      0 ]
  - location: 30 (just consumed gas: 0.010)
    [ (Pair 0 100)
      0
      0 ]
  - location: 32 (just consumed gas: 0.010)
    [ 0
      0
      0 ]
  - location: 33 (just consumed gas: 0.035)
    [ 0
      0 ]
  - location: 30 (just consumed gas: 0.035)
    [ (Pair 0 100)
      0
      0 ]
  - location: 34 (just consumed gas: 0.010)
    [ 0
      (Pair 0 100)
      0 ]
  - location: 35 (just consumed gas: 0.010)
    [ (Pair 0 100)
      0 ]
  - location: 37 (just consumed gas: 0.010)
    [ 100
      0 ]
  - location: 38 (just consumed gas: 0.035)
    [ 100 ]
  - location: 35 (just consumed gas: 0.035)
    [ 0
      100 ]
  - location: 39 (just consumed gas: 0.010)
    [ (Pair 0 100) ]
  - location: 20 (just consumed gas: 0.025)
    [ (Pair 2 100)
      (Pair 0 100) ]
  - location: 22 (just consumed gas: 0.010)
    [ (Pair 0 100) ]
  - location: 24 (just consumed gas: 0.010)
    [ (Pair 0 100)
      (Pair 0 100) ]
  - location: 25 (just consumed gas: 0.010)
    [ 0
      (Pair 0 100) ]
  - location: 26 (just consumed gas: 0.010)
    [ (Pair 0 100) ]
  - location: 28 (just consumed gas: 0.010)
    [ 100 ]
  - location: 26 (just consumed gas: 0.035)
    [ 0
      100 ]
  - location: 22 (just consumed gas: 0.035)
    [ (Pair 2 100)
      0
      100 ]
  - location: 29 (just consumed gas: 0.010)
    [ (Pair 2 100)
      (Pair 2 100)
      0
      100 ]
  - location: 30 (just consumed gas: 0.010)
    [ (Pair 2 100)
      0
      100 ]
  - location: 32 (just consumed gas: 0.010)
    [ 2
      0
      100 ]
  - location: 33 (just consumed gas: 0.035)
    [ 2
      100 ]
  - location: 30 (just consumed gas: 0.035)
    [ (Pair 2 100)
      2
      100 ]
  - location: 34 (just consumed gas: 0.010)
    [ 2
      (Pair 2 100)
      100 ]
  - location: 35 (just consumed gas: 0.010)
    [ (Pair 2 100)
      100 ]
  - location: 37 (just consumed gas: 0.010)
    [ 100
      100 ]
  - location: 38 (just consumed gas: 0.035)
    [ 200 ]
  - location: 35 (just consumed gas: 0.035)
    [ 2
      200 ]
  - location: 39 (just consumed gas: 0.010)
    [ (Pair 2 200) ]
  - location: 20 (just consumed gas: 0.035)
    [ (Pair 2 200) ]
  - location: 40 (just consumed gas: 0.010)
    [ {}
      (Pair 2 200) ]
  - location: 42 (just consumed gas: 0.010)
    [ (Pair {} 2 200) ]

