
./octez-client --protocol PtParisBQscdCm6Cfow6ndeU6wKJyA3aV1j4D3gQBQMsTQyJCrz --mode mockup --no-base-dir-warnings run script michelson_test_scripts/opcodes/neg.tz on storage 0 and input '(Right 2)' --level 1 --trace-stack
storage
  -2
emitted operations
  
big_map diff
  
trace
  - location: 9 (just consumed gas: 6.063)
    [ (Pair (Right 2) 0) ]
  - location: 9 (just consumed gas: 0.010)
    [ (Right 2) ]
  - location: 10 (just consumed gas: 0.010)
    [ 2 ]
  - location: 14 (just consumed gas: 0.025)
    [ -2 ]
  - location: 10 (just consumed gas: 0.025)
    [ -2 ]
  - location: 15 (just consumed gas: 0.010)
    [ {}
      -2 ]
  - location: 17 (just consumed gas: 0.010)
    [ (Pair {} -2) ]

