
./octez-client --protocol PtParisBQscdCm6Cfow6ndeU6wKJyA3aV1j4D3gQBQMsTQyJCrz --mode mockup --no-base-dir-warnings run script michelson_test_scripts/opcodes/map_mem_string.tz on storage '(Pair { Elt "foo" 0 } None)' and input '"foo"' --level 1 --trace-stack
storage
  (Pair { Elt "foo" 0 } (Some True))
emitted operations
  
big_map diff
  
trace
  - location: 12 (just consumed gas: 9.489)
    [ (Pair "foo" { Elt "foo" 0 } None) ]
  - location: 12 (just consumed gas: 0.010)
    [ "foo"
      (Pair { Elt "foo" 0 } None) ]
  - location: 13 (just consumed gas: 0.010)
    [ (Pair { Elt "foo" 0 } None) ]
  - location: 15 (just consumed gas: 0.010)
    [ { Elt "foo" 0 } ]
  - location: 16 (just consumed gas: 0.010)
    [ { Elt "foo" 0 }
      { Elt "foo" 0 } ]
  - location: 13 (just consumed gas: 0.035)
    [ "foo"
      { Elt "foo" 0 }
      { Elt "foo" 0 } ]
  - location: 17 (just consumed gas: 0.045)
    [ True
      { Elt "foo" 0 } ]
  - location: 18 (just consumed gas: 0.010)
    [ (Some True)
      { Elt "foo" 0 } ]
  - location: 19 (just consumed gas: 0.010)
    [ { Elt "foo" 0 }
      (Some True) ]
  - location: 20 (just consumed gas: 0.010)
    [ (Pair { Elt "foo" 0 } (Some True)) ]
  - location: 21 (just consumed gas: 0.010)
    [ {}
      (Pair { Elt "foo" 0 } (Some True)) ]
  - location: 23 (just consumed gas: 0.010)
    [ (Pair {} { Elt "foo" 0 } (Some True)) ]

