
./octez-client --protocol PtParisBQscdCm6Cfow6ndeU6wKJyA3aV1j4D3gQBQMsTQyJCrz --mode mockup --no-base-dir-warnings run script michelson_test_scripts/opcodes/dup-n.tz on storage Unit and input Unit --level 1 --trace-stack
storage
  Unit
emitted operations
  
big_map diff
  
trace
  - location: 7 (just consumed gas: 41.660)
    [ (Pair Unit Unit) ]
  - location: 7 (just consumed gas: 0.010)
    [  ]
  - location: 8 (just consumed gas: 0.010)
    [ 5 ]
  - location: 11 (just consumed gas: 0.010)
    [ 4
      5 ]
  - location: 14 (just consumed gas: 0.010)
    [ 3
      4
      5 ]
  - location: 17 (just consumed gas: 0.010)
    [ 2
      3
      4
      5 ]
  - location: 20 (just consumed gas: 0.010)
    [ 1
      2
      3
      4
      5 ]
  - location: 23 (just consumed gas: 0.021)
    [ 1
      1
      2
      3
      4
      5 ]
  - location: 25 (just consumed gas: 0.010)
    [ 1
      1
      1
      2
      3
      4
      5 ]
  - location: 30 (just consumed gas: 0.035)
    [ 0
      1
      2
      3
      4
      5 ]
  - location: 31 (just consumed gas: 0.010)
    [ True
      1
      2
      3
      4
      5 ]
  - location: 32 (just consumed gas: 0.010)
    [ 1
      2
      3
      4
      5 ]
  - location: 32 (just consumed gas: 0.025)
    [ 1
      2
      3
      4
      5 ]
  - location: 38 (just consumed gas: 0.022)
    [ 2
      1
      2
      3
      4
      5 ]
  - location: 40 (just consumed gas: 0.010)
    [ 2
      2
      1
      2
      3
      4
      5 ]
  - location: 45 (just consumed gas: 0.035)
    [ 0
      1
      2
      3
      4
      5 ]
  - location: 46 (just consumed gas: 0.010)
    [ True
      1
      2
      3
      4
      5 ]
  - location: 47 (just consumed gas: 0.010)
    [ 1
      2
      3
      4
      5 ]
  - location: 47 (just consumed gas: 0.025)
    [ 1
      2
      3
      4
      5 ]
  - location: 53 (just consumed gas: 0.023)
    [ 3
      1
      2
      3
      4
      5 ]
  - location: 55 (just consumed gas: 0.010)
    [ 3
      3
      1
      2
      3
      4
      5 ]
  - location: 60 (just consumed gas: 0.035)
    [ 0
      1
      2
      3
      4
      5 ]
  - location: 61 (just consumed gas: 0.010)
    [ True
      1
      2
      3
      4
      5 ]
  - location: 62 (just consumed gas: 0.010)
    [ 1
      2
      3
      4
      5 ]
  - location: 62 (just consumed gas: 0.025)
    [ 1
      2
      3
      4
      5 ]
  - location: 68 (just consumed gas: 0.025)
    [ 4
      1
      2
      3
      4
      5 ]
  - location: 70 (just consumed gas: 0.010)
    [ 4
      4
      1
      2
      3
      4
      5 ]
  - location: 75 (just consumed gas: 0.035)
    [ 0
      1
      2
      3
      4
      5 ]
  - location: 76 (just consumed gas: 0.010)
    [ True
      1
      2
      3
      4
      5 ]
  - location: 77 (just consumed gas: 0.010)
    [ 1
      2
      3
      4
      5 ]
  - location: 77 (just consumed gas: 0.025)
    [ 1
      2
      3
      4
      5 ]
  - location: 83 (just consumed gas: 0.026)
    [ 5
      1
      2
      3
      4
      5 ]
  - location: 85 (just consumed gas: 0.010)
    [ 5
      5
      1
      2
      3
      4
      5 ]
  - location: 90 (just consumed gas: 0.035)
    [ 0
      1
      2
      3
      4
      5 ]
  - location: 91 (just consumed gas: 0.010)
    [ True
      1
      2
      3
      4
      5 ]
  - location: 92 (just consumed gas: 0.010)
    [ 1
      2
      3
      4
      5 ]
  - location: 92 (just consumed gas: 0.025)
    [ 1
      2
      3
      4
      5 ]
  - location: 98 (just consumed gas: 0.042)
    [  ]
  - location: 100 (just consumed gas: 0.010)
    [ Unit ]
  - location: 101 (just consumed gas: 0.010)
    [ {}
      Unit ]
  - location: 103 (just consumed gas: 0.010)
    [ (Pair {} Unit) ]

