
./octez-client --protocol PtParisBQscdCm6Cfow6ndeU6wKJyA3aV1j4D3gQBQMsTQyJCrz --mode mockup --no-base-dir-warnings run script michelson_test_scripts/opcodes/bls12_381_z_fr_int.tz on storage 0x8578be1766f92cd82c5e5135c374a03a8562e263ea953a3f9711b0153b7fcf2d and input 17180093072794558806177035834397932205917577288483739652510482486858834123369 --level 1 --trace-stack
storage
  0xfaa60dacea8e26112e524d379720fe4f95fbc5a26f1b1a67e229e26ddecbf221
emitted operations
  
big_map diff
  
trace
  - location: 7 (just consumed gas: 4.831)
    [ (Pair 17180093072794558806177035834397932205917577288483739652510482486858834123369
            0x8578be1766f92cd82c5e5135c374a03a8562e263ea953a3f9711b0153b7fcf2d) ]
  - location: 7 (just consumed gas: 0.010)
    [ 17180093072794558806177035834397932205917577288483739652510482486858834123369
      0x8578be1766f92cd82c5e5135c374a03a8562e263ea953a3f9711b0153b7fcf2d ]
  - location: 8 (just consumed gas: 0.010)
    [ 0x8578be1766f92cd82c5e5135c374a03a8562e263ea953a3f9711b0153b7fcf2d
      17180093072794558806177035834397932205917577288483739652510482486858834123369 ]
  - location: 9 (just consumed gas: 0.299)
    [ 0xfaa60dacea8e26112e524d379720fe4f95fbc5a26f1b1a67e229e26ddecbf221 ]
  - location: 10 (just consumed gas: 0.010)
    [ {}
      0xfaa60dacea8e26112e524d379720fe4f95fbc5a26f1b1a67e229e26ddecbf221 ]
  - location: 12 (just consumed gas: 0.010)
    [ (Pair {} 0xfaa60dacea8e26112e524d379720fe4f95fbc5a26f1b1a67e229e26ddecbf221) ]

