
./octez-client --protocol PtParisBQscdCm6Cfow6ndeU6wKJyA3aV1j4D3gQBQMsTQyJCrz --mode mockup --no-base-dir-warnings run script michelson_test_scripts/opcodes/contains_all.tz on storage None and input '(Pair {} {})' --level 1 --trace-stack
storage
  (Some True)
emitted operations
  
big_map diff
  
trace
  - location: 12 (just consumed gas: 31.712)
    [ (Pair (Pair {} {}) None) ]
  - location: 12 (just consumed gas: 0.010)
    [ (Pair {} {}) ]
  - location: 13 (just consumed gas: 0.010)
    [ (Pair {} {})
      (Pair {} {}) ]
  - location: 14 (just consumed gas: 0.010)
    [ {}
      (Pair {} {}) ]
  - location: 15 (just consumed gas: 0.010)
    [ (Pair {} {}) ]
  - location: 17 (just consumed gas: 0.010)
    [ {} ]
  - location: 15 (just consumed gas: 0.035)
    [ {}
      {} ]
  - location: 18 (just consumed gas: 0.300)
    [ {}
      {}
      {} ]
  - location: 20 (just consumed gas: 0.010)
    [ {}
      {}
      {} ]
  - location: 21 (just consumed gas: 0.040)
    [ {}
      {} ]
  - location: 34 (just consumed gas: 0.010)
    [ True
      {}
      {} ]
  - location: 37 (just consumed gas: 0.010)
    [ {}
      True
      {} ]
  - location: 38 (just consumed gas: 0.010)
    [ (Pair {} True)
      {} ]
  - location: 39 (just consumed gas: 0.010)
    [ {}
      (Pair {} True) ]
  - location: 40 (just consumed gas: 0.040)
    [ (Pair {} True) ]
  - location: 64 (just consumed gas: 0.010)
    [ True ]
  - location: 65 (just consumed gas: 0.010)
    [ (Some True) ]
  - location: 66 (just consumed gas: 0.010)
    [ {}
      (Some True) ]
  - location: 68 (just consumed gas: 0.010)
    [ (Pair {} (Some True)) ]

