
./octez-client --protocol PtParisBQscdCm6Cfow6ndeU6wKJyA3aV1j4D3gQBQMsTQyJCrz --mode mockup --no-base-dir-warnings run script michelson_test_scripts/opcodes/int.tz on storage None and input 1 --level 1 --trace-stack
storage
  (Some 1)
emitted operations
  
big_map diff
  
trace
  - location: 8 (just consumed gas: 4.907)
    [ (Pair 1 None) ]
  - location: 8 (just consumed gas: 0.010)
    [ 1 ]
  - location: 9 (just consumed gas: 0.010)
    [ 1 ]
  - location: 10 (just consumed gas: 0.010)
    [ (Some 1) ]
  - location: 11 (just consumed gas: 0.010)
    [ {}
      (Some 1) ]
  - location: 13 (just consumed gas: 0.010)
    [ (Pair {} (Some 1)) ]

