
./octez-client --protocol PtParisBQscdCm6Cfow6ndeU6wKJyA3aV1j4D3gQBQMsTQyJCrz --mode mockup --no-base-dir-warnings run script michelson_test_scripts/opcodes/map_mem_nat.tz on storage '(Pair { Elt 1 4 ; Elt 2 11 } None)' and input 3 --level 1 --trace-stack
storage
  (Pair { Elt 1 4 ; Elt 2 11 } (Some False))
emitted operations
  
big_map diff
  
trace
  - location: 12 (just consumed gas: 9.689)
    [ (Pair 3 { Elt 1 4 ; Elt 2 11 } None) ]
  - location: 12 (just consumed gas: 0.010)
    [ 3
      (Pair { Elt 1 4 ; Elt 2 11 } None) ]
  - location: 13 (just consumed gas: 0.010)
    [ (Pair { Elt 1 4 ; Elt 2 11 } None) ]
  - location: 15 (just consumed gas: 0.010)
    [ { Elt 1 4 ; Elt 2 11 } ]
  - location: 16 (just consumed gas: 0.010)
    [ { Elt 1 4 ; Elt 2 11 }
      { Elt 1 4 ; Elt 2 11 } ]
  - location: 13 (just consumed gas: 0.035)
    [ 3
      { Elt 1 4 ; Elt 2 11 }
      { Elt 1 4 ; Elt 2 11 } ]
  - location: 17 (just consumed gas: 0.045)
    [ False
      { Elt 1 4 ; Elt 2 11 } ]
  - location: 18 (just consumed gas: 0.010)
    [ (Some False)
      { Elt 1 4 ; Elt 2 11 } ]
  - location: 19 (just consumed gas: 0.010)
    [ { Elt 1 4 ; Elt 2 11 }
      (Some False) ]
  - location: 20 (just consumed gas: 0.010)
    [ (Pair { Elt 1 4 ; Elt 2 11 } (Some False)) ]
  - location: 21 (just consumed gas: 0.010)
    [ {}
      (Pair { Elt 1 4 ; Elt 2 11 } (Some False)) ]
  - location: 23 (just consumed gas: 0.010)
    [ (Pair {} { Elt 1 4 ; Elt 2 11 } (Some False)) ]

