
./octez-client --protocol PtParisBQscdCm6Cfow6ndeU6wKJyA3aV1j4D3gQBQMsTQyJCrz --mode mockup --no-base-dir-warnings run script michelson_test_scripts/opcodes/bls12_381_z_fr_int.tz on storage 0x0100000000000000000000000000000000000000000000000000000000000000 and input -42 --level 1 --trace-stack
storage
  0xd7fffffffefffffffe5bfeff02a4bd5305d8a10908d83933487d9d2953a7ed73
emitted operations
  
big_map diff
  
trace
  - location: 7 (just consumed gas: 4.831)
    [ (Pair -42 0x0100000000000000000000000000000000000000000000000000000000000000) ]
  - location: 7 (just consumed gas: 0.010)
    [ -42
      0x0100000000000000000000000000000000000000000000000000000000000000 ]
  - location: 8 (just consumed gas: 0.010)
    [ 0x0100000000000000000000000000000000000000000000000000000000000000
      -42 ]
  - location: 9 (just consumed gas: 0.266)
    [ 0xd7fffffffefffffffe5bfeff02a4bd5305d8a10908d83933487d9d2953a7ed73 ]
  - location: 10 (just consumed gas: 0.010)
    [ {}
      0xd7fffffffefffffffe5bfeff02a4bd5305d8a10908d83933487d9d2953a7ed73 ]
  - location: 12 (just consumed gas: 0.010)
    [ (Pair {} 0xd7fffffffefffffffe5bfeff02a4bd5305d8a10908d83933487d9d2953a7ed73) ]

