
./octez-client --protocol PtParisBQscdCm6Cfow6ndeU6wKJyA3aV1j4D3gQBQMsTQyJCrz --mode mockup --no-base-dir-warnings run script michelson_test_scripts/opcodes/get_and_update_map.tz on storage '(Pair (Some 5) { Elt "hello" 4 })' and input '"hello"' --level 1 --trace-stack
storage
  (Pair (Some 4) { Elt "hello" 5 })
emitted operations
  
big_map diff
  
trace
  - location: 13 (just consumed gas: 8.104)
    [ (Pair "hello" (Some 5) { Elt "hello" 4 }) ]
  - location: 13 (just consumed gas: 0.010)
    [ "hello"
      (Pair (Some 5) { Elt "hello" 4 }) ]
  - location: 14 (just consumed gas: 0.010)
    [ (Pair (Some 5) { Elt "hello" 4 }) ]
  - location: 16 (just consumed gas: 0.010)
    [ (Some 5)
      { Elt "hello" 4 } ]
  - location: 14 (just consumed gas: 0.035)
    [ "hello"
      (Some 5)
      { Elt "hello" 4 } ]
  - location: 17 (just consumed gas: 0.076)
    [ (Some 4)
      { Elt "hello" 5 } ]
  - location: 18 (just consumed gas: 0.010)
    [ (Pair (Some 4) { Elt "hello" 5 }) ]
  - location: 19 (just consumed gas: 0.010)
    [ {}
      (Pair (Some 4) { Elt "hello" 5 }) ]
  - location: 21 (just consumed gas: 0.010)
    [ (Pair {} (Some 4) { Elt "hello" 5 }) ]

