
./octez-client --protocol PtParisBQscdCm6Cfow6ndeU6wKJyA3aV1j4D3gQBQMsTQyJCrz --mode mockup --no-base-dir-warnings run script michelson_test_scripts/opcodes/and_binary.tz on storage Unit and input Unit --level 1 --trace-stack
storage
  Unit
emitted operations
  
big_map diff
  
trace
  - location: 7 (just consumed gas: 35.762)
    [ (Pair Unit Unit) ]
  - location: 7 (just consumed gas: 0.010)
    [  ]
  - location: 8 (just consumed gas: 0.010)
    [ 5 ]
  - location: 11 (just consumed gas: 0.010)
    [ 6
      5 ]
  - location: 14 (just consumed gas: 0.035)
    [ 4 ]
  - location: 15 (just consumed gas: 0.010)
    [ 4
      4 ]
  - location: 20 (just consumed gas: 0.035)
    [ 0 ]
  - location: 21 (just consumed gas: 0.010)
    [ True ]
  - location: 22 (just consumed gas: 0.010)
    [  ]
  - location: 22 (just consumed gas: 0.025)
    [  ]
  - location: 28 (just consumed gas: 0.010)
    [ 6 ]
  - location: 31 (just consumed gas: 0.010)
    [ 5
      6 ]
  - location: 34 (just consumed gas: 0.035)
    [ 4 ]
  - location: 35 (just consumed gas: 0.010)
    [ 4
      4 ]
  - location: 40 (just consumed gas: 0.035)
    [ 0 ]
  - location: 41 (just consumed gas: 0.010)
    [ True ]
  - location: 42 (just consumed gas: 0.010)
    [  ]
  - location: 42 (just consumed gas: 0.025)
    [  ]
  - location: 48 (just consumed gas: 0.010)
    [ 12 ]
  - location: 51 (just consumed gas: 0.010)
    [ -1
      12 ]
  - location: 54 (just consumed gas: 0.035)
    [ 12 ]
  - location: 55 (just consumed gas: 0.010)
    [ 12
      12 ]
  - location: 60 (just consumed gas: 0.035)
    [ 0 ]
  - location: 61 (just consumed gas: 0.010)
    [ True ]
  - location: 62 (just consumed gas: 0.010)
    [  ]
  - location: 62 (just consumed gas: 0.025)
    [  ]
  - location: 68 (just consumed gas: 0.010)
    [ 12 ]
  - location: 71 (just consumed gas: 0.010)
    [ -5
      12 ]
  - location: 74 (just consumed gas: 0.035)
    [ 8 ]
  - location: 75 (just consumed gas: 0.010)
    [ 8
      8 ]
  - location: 80 (just consumed gas: 0.035)
    [ 0 ]
  - location: 81 (just consumed gas: 0.010)
    [ True ]
  - location: 82 (just consumed gas: 0.010)
    [  ]
  - location: 82 (just consumed gas: 0.025)
    [  ]
  - location: 88 (just consumed gas: 0.010)
    [ Unit ]
  - location: 89 (just consumed gas: 0.010)
    [ {}
      Unit ]
  - location: 91 (just consumed gas: 0.010)
    [ (Pair {} Unit) ]

