
./octez-client --protocol PtParisBQscdCm6Cfow6ndeU6wKJyA3aV1j4D3gQBQMsTQyJCrz --mode mockup --no-base-dir-warnings run script michelson_test_scripts/opcodes/or.tz on storage None and input '(Pair True False)' --level 1 --trace-stack
storage
  (Some True)
emitted operations
  
big_map diff
  
trace
  - location: 10 (just consumed gas: 7.975)
    [ (Pair (Pair True False) None) ]
  - location: 10 (just consumed gas: 0.010)
    [ (Pair True False) ]
  - location: 11 (just consumed gas: 0.010)
    [ (Pair True False)
      (Pair True False) ]
  - location: 12 (just consumed gas: 0.010)
    [ True
      (Pair True False) ]
  - location: 13 (just consumed gas: 0.010)
    [ (Pair True False)
      True ]
  - location: 14 (just consumed gas: 0.010)
    [ False
      True ]
  - location: 15 (just consumed gas: 0.010)
    [ True ]
  - location: 16 (just consumed gas: 0.010)
    [ (Some True) ]
  - location: 17 (just consumed gas: 0.010)
    [ {}
      (Some True) ]
  - location: 19 (just consumed gas: 0.010)
    [ (Pair {} (Some True)) ]

