
./octez-client --protocol PtParisBQscdCm6Cfow6ndeU6wKJyA3aV1j4D3gQBQMsTQyJCrz --mode mockup --no-base-dir-warnings run script michelson_test_scripts/opcodes/bls12_381_fr_to_int.tz on storage 0 and input 0x00 --level 1 --trace-stack
storage
  0
emitted operations
  
big_map diff
  
trace
  - location: 7 (just consumed gas: 4.278)
    [ (Pair 0x0000000000000000000000000000000000000000000000000000000000000000 0) ]
  - location: 7 (just consumed gas: 0.010)
    [ 0x0000000000000000000000000000000000000000000000000000000000000000 ]
  - location: 8 (just consumed gas: 0.115)
    [ 0 ]
  - location: 9 (just consumed gas: 0.010)
    [ {}
      0 ]
  - location: 11 (just consumed gas: 0.010)
    [ (Pair {} 0) ]

