

{
  "opponent": "tz1gjaF81ZRRvdzjobyfVNsAeSC6PScjfQwN",
  "start_tick": "198000000000",
  "end_tick": "220000000000",
  "dissection": [
    {
      "tick": "198000000000"
    },
    {
      "tick": "209000000000"
    },
    {
      "tick": "220000000000"
    }
  ]
}


{
  "opponent": "tz1gjaF81ZRRvdzjobyfVNsAeSC6PScjfQwN",
  "start_tick": "198000000000",
  "end_tick": "198343750000",
  "dissection": [
    {
      "tick": "198000000000"
    },
    {
      "tick": "198010742187"
    },
    {
      "tick": "198021484374"
    },
    {
      "tick": "198032226561"
    },
    {
      "tick": "198042968748"
    },
    {
      "tick": "198053710935"
    },
    {
      "tick": "198064453122"
    },
    {
      "tick": "198075195309"
    },
    {
      "tick": "198085937496"
    },
    {
      "tick": "198096679683"
    },
    {
      "tick": "198107421870"
    },
    {
      "tick": "198118164057"
    },
    {
      "tick": "198128906244"
    },
    {
      "tick": "198139648431"
    },
    {
      "tick": "198150390618"
    },
    {
      "tick": "198161132805"
    },
    {
      "tick": "198171874992"
    },
    {
      "tick": "198182617179"
    },
    {
      "tick": "198193359366"
    },
    {
      "tick": "198204101553"
    },
    {
      "tick": "198214843740"
    },
    {
      "tick": "198225585927"
    },
    {
      "tick": "198236328114"
    },
    {
      "tick": "198247070301"
    },
    {
      "tick": "198257812488"
    },
    {
      "tick": "198268554675"
    },
    {
      "tick": "198279296862"
    },
    {
      "tick": "198290039049"
    },
    {
      "tick": "198300781236"
    },
    {
      "tick": "198311523423"
    },
    {
      "tick": "198322265610"
    },
    {
      "tick": "198333007797"
    },
    {
      "tick": "198343750000"
    }
  ]
}


{
  "opponent": "tz1gjaF81ZRRvdzjobyfVNsAeSC6PScjfQwN",
  "start_tick": "198000000000",
  "end_tick": "198000335693",
  "dissection": [
    {
      "tick": "198000000000"
    },
    {
      "tick": "198000010490"
    },
    {
      "tick": "198000020980"
    },
    {
      "tick": "198000031470"
    },
    {
      "tick": "198000041960"
    },
    {
      "tick": "198000052450"
    },
    {
      "tick": "198000062940"
    },
    {
      "tick": "198000073430"
    },
    {
      "tick": "198000083920"
    },
    {
      "tick": "198000094410"
    },
    {
      "tick": "198000104900"
    },
    {
      "tick": "198000115390"
    },
    {
      "tick": "198000125880"
    },
    {
      "tick": "198000136370"
    },
    {
      "tick": "198000146860"
    },
    {
      "tick": "198000157350"
    },
    {
      "tick": "198000167840"
    },
    {
      "tick": "198000178330"
    },
    {
      "tick": "198000188820"
    },
    {
      "tick": "198000199310"
    },
    {
      "tick": "198000209800"
    },
    {
      "tick": "198000220290"
    },
    {
      "tick": "198000230780"
    },
    {
      "tick": "198000241270"
    },
    {
      "tick": "198000251760"
    },
    {
      "tick": "198000262250"
    },
    {
      "tick": "198000272740"
    },
    {
      "tick": "198000283230"
    },
    {
      "tick": "198000293720"
    },
    {
      "tick": "198000304210"
    },
    {
      "tick": "198000314700"
    },
    {
      "tick": "198000325190"
    },
    {
      "tick": "198000335693"
    }
  ]
}


{
  "opponent": "tz1gjaF81ZRRvdzjobyfVNsAeSC6PScjfQwN",
  "start_tick": "198000000000",
  "end_tick": "198000000327",
  "dissection": [
    {
      "tick": "198000000000"
    },
    {
      "tick": "198000000010"
    },
    {
      "tick": "198000000020"
    },
    {
      "tick": "198000000030"
    },
    {
      "tick": "198000000040"
    },
    {
      "tick": "198000000050"
    },
    {
      "tick": "198000000060"
    },
    {
      "tick": "198000000070"
    },
    {
      "tick": "198000000080"
    },
    {
      "tick": "198000000090"
    },
    {
      "tick": "198000000100"
    },
    {
      "tick": "198000000110"
    },
    {
      "tick": "198000000120"
    },
    {
      "tick": "198000000130"
    },
    {
      "tick": "198000000140"
    },
    {
      "tick": "198000000150"
    },
    {
      "tick": "198000000160"
    },
    {
      "tick": "198000000170"
    },
    {
      "tick": "198000000180"
    },
    {
      "tick": "198000000190"
    },
    {
      "tick": "198000000200"
    },
    {
      "tick": "198000000210"
    },
    {
      "tick": "198000000220"
    },
    {
      "tick": "198000000230"
    },
    {
      "tick": "198000000240"
    },
    {
      "tick": "198000000250"
    },
    {
      "tick": "198000000260"
    },
    {
      "tick": "198000000270"
    },
    {
      "tick": "198000000280"
    },
    {
      "tick": "198000000290"
    },
    {
      "tick": "198000000300"
    },
    {
      "tick": "198000000310"
    },
    {
      "tick": "198000000327"
    }
  ]
}


{
  "opponent": "tz1gjaF81ZRRvdzjobyfVNsAeSC6PScjfQwN",
  "start_tick": "198000000008",
  "end_tick": "198000000009",
  "dissection": [
    {
      "tick": "198000000008"
    },
    {
      "tick": "198000000009"
    }
  ]
}
